[gd_scene load_steps=10 format=3 uid="uid://bfmqpo2nufy5y"]

[ext_resource type="Texture2D" uid="uid://dd352yg72jxhg" path="res://Assets/Sprites/water/tile-0.png" id="1_ksn5a"]
[ext_resource type="Texture2D" uid="uid://d15tix2goiv73" path="res://Assets/Sprites/water/tile-1.png" id="2_5yqp5"]
[ext_resource type="Texture2D" uid="uid://bqftgfchkwgkw" path="res://Assets/Sprites/water/tile-2.png" id="3_678un"]
[ext_resource type="Texture2D" uid="uid://biimknwnhfpdw" path="res://Assets/Sprites/water/tile-3.png" id="4_q4txt"]
[ext_resource type="Texture2D" uid="uid://wunbneimutyy" path="res://Assets/Sprites/water/tile-6.png" id="5_jaoqa"]
[ext_resource type="Texture2D" uid="uid://c6x7qr6vr0snt" path="res://Assets/Sprites/water/tile-7.png" id="6_p0xlq"]
[ext_resource type="Texture2D" uid="uid://cdg640b0jg86a" path="res://Assets/Sprites/water/tile-8.png" id="7_nkloo"]
[ext_resource type="Texture2D" uid="uid://cd0s2xaq2b8ui" path="res://Assets/Sprites/water/tile-9.png" id="8_nutty"]

[sub_resource type="SpriteFrames" id="SpriteFrames_1ncrg"]
animations = [{
"frames": [ExtResource("5_jaoqa"), ExtResource("6_p0xlq"), ExtResource("7_nkloo"), ExtResource("8_nutty")],
"loop": true,
"name": &"default",
"speed": 5.0
}, {
"frames": [ExtResource("1_ksn5a"), ExtResource("2_5yqp5"), ExtResource("3_678un"), ExtResource("4_q4txt")],
"loop": true,
"name": &"tall",
"speed": 5.0
}]

[node name="Waterfall" type="Node2D"]

[node name="AnimatedSprite2d" type="AnimatedSprite2D" parent="."]
texture_filter = 1
scale = Vector2(2, 2)
frames = SubResource("SpriteFrames_1ncrg")
animation = &"tall"
playing = true
