[gd_scene load_steps=2 format=3 uid="uid://ragfcmmt76d1"]

[ext_resource type="Script" path="res://Scenes/PlayerCamera/PlayerCamera.gd" id="1_t4qtt"]

[node name="PlayerCamera" type="Camera2D"]
current = true
script = ExtResource("1_t4qtt")
